%YAML 1.1
%TAG !u! tag:unity3d.com,2011:
--- !u!29 &1
OcclusionCullingSettings:
  m_ObjectHideFlags: 0
  serializedVersion: 2
  m_OcclusionBakeSettings:
    smallestOccluder: 5
    smallestHole: 0.25
    backfaceThreshold: 100
  m_SceneGUID: 00000000000000000000000000000000
  m_OcclusionCullingData: {fileID: 0}
--- !u!104 &2
RenderSettings:
  m_ObjectHideFlags: 0
  serializedVersion: 9
  m_Fog: 0
  m_FogColor: {r: 0.5, g: 0.5, b: 0.5, a: 1}
  m_FogMode: 3
  m_FogDensity: 0.01
  m_LinearFogStart: 0
  m_LinearFogEnd: 300
  m_AmbientSkyColor: {r: 0.4716981, g: 0.4716981, b: 0.4716981, a: 1}
  m_AmbientEquatorColor: {r: 0.114, g: 0.125, b: 0.133, a: 1}
  m_AmbientGroundColor: {r: 0.047, g: 0.043, b: 0.035, a: 1}
  m_AmbientIntensity: 1
  m_AmbientMode: 3
  m_SubtractiveShadowColor: {r: 0.42, g: 0.478, b: 0.627, a: 1}
  m_SkyboxMaterial: {fileID: 10304, guid: 0000000000000000f000000000000000, type: 0}
  m_HaloStrength: 0.5
  m_FlareStrength: 1
  m_FlareFadeSpeed: 3
  m_HaloTexture: {fileID: 0}
  m_SpotCookie: {fileID: 10001, guid: 0000000000000000e000000000000000, type: 0}
  m_DefaultReflectionMode: 0
  m_DefaultReflectionResolution: 128
  m_ReflectionBounces: 1
  m_ReflectionIntensity: 1
  m_CustomReflection: {fileID: 0}
  m_Sun: {fileID: 0}
  m_IndirectSpecularColor: {r: 0, g: 0, b: 0, a: 1}
  m_UseRadianceAmbientProbe: 0
--- !u!157 &3
LightmapSettings:
  m_ObjectHideFlags: 0
  serializedVersion: 11
  m_GIWorkflowMode: 1
  m_GISettings:
    serializedVersion: 2
    m_BounceScale: 1
    m_IndirectOutputScale: 1
    m_AlbedoBoost: 1
    m_EnvironmentLightingMode: 0
    m_EnableBakedLightmaps: 1
    m_EnableRealtimeLightmaps: 0
  m_LightmapEditorSettings:
    serializedVersion: 12
    m_Resolution: 2
    m_BakeResolution: 40
    m_AtlasSize: 1024
    m_AO: 0
    m_AOMaxDistance: 1
    m_CompAOExponent: 1
    m_CompAOExponentDirect: 0
    m_ExtractAmbientOcclusion: 0
    m_Padding: 2
    m_LightmapParameters: {fileID: 0}
    m_LightmapsBakeMode: 1
    m_TextureCompression: 1
    m_FinalGather: 0
    m_FinalGatherFiltering: 1
    m_FinalGatherRayCount: 256
    m_ReflectionCompression: 2
    m_MixedBakeMode: 2
    m_BakeBackend: 1
    m_PVRSampling: 1
    m_PVRDirectSampleCount: 32
    m_PVRSampleCount: 512
    m_PVRBounces: 2
    m_PVREnvironmentSampleCount: 256
    m_PVREnvironmentReferencePointCount: 2048
    m_PVRFilteringMode: 1
    m_PVRDenoiserTypeDirect: 1
    m_PVRDenoiserTypeIndirect: 1
    m_PVRDenoiserTypeAO: 1
    m_PVRFilterTypeDirect: 0
    m_PVRFilterTypeIndirect: 0
    m_PVRFilterTypeAO: 0
    m_PVREnvironmentMIS: 1
    m_PVRCulling: 1
    m_PVRFilteringGaussRadiusDirect: 1
    m_PVRFilteringGaussRadiusIndirect: 5
    m_PVRFilteringGaussRadiusAO: 2
    m_PVRFilteringAtrousPositionSigmaDirect: 0.5
    m_PVRFilteringAtrousPositionSigmaIndirect: 2
    m_PVRFilteringAtrousPositionSigmaAO: 1
    m_ExportTrainingData: 0
    m_TrainingDataDestination: TrainingData
    m_LightProbeSampleCountMultiplier: 4
  m_LightingDataAsset: {fileID: 0}
  m_UseShadowmask: 1
--- !u!196 &4
NavMeshSettings:
  serializedVersion: 2
  m_ObjectHideFlags: 0
  m_BuildSettings:
    serializedVersion: 2
    agentTypeID: 0
    agentRadius: 0.5
    agentHeight: 2
    agentSlope: 45
    agentClimb: 0.4
    ledgeDropHeight: 0
    maxJumpAcrossDistance: 0
    minRegionArea: 2
    manualCellSize: 0
    cellSize: 0.16666667
    manualTileSize: 0
    tileSize: 256
    accuratePlacement: 0
    debug:
      m_Flags: 0
  m_NavMeshData: {fileID: 0}
--- !u!1 &58312911
GameObject:
  m_ObjectHideFlags: 0
  m_CorrespondingSourceObject: {fileID: 0}
  m_PrefabInstance: {fileID: 0}
  m_PrefabAsset: {fileID: 0}
  serializedVersion: 6
  m_Component:
  - component: {fileID: 58312914}
  - component: {fileID: 58312913}
  - component: {fileID: 58312912}
  m_Layer: 0
  m_Name: Main Camera
  m_TagString: MainCamera
  m_Icon: {fileID: 0}
  m_NavMeshLayer: 0
  m_StaticEditorFlags: 0
  m_IsActive: 1
--- !u!81 &58312912
AudioListener:
  m_ObjectHideFlags: 0
  m_CorrespondingSourceObject: {fileID: 0}
  m_PrefabInstance: {fileID: 0}
  m_PrefabAsset: {fileID: 0}
  m_GameObject: {fileID: 58312911}
  m_Enabled: 1
--- !u!20 &58312913
Camera:
  m_ObjectHideFlags: 0
  m_CorrespondingSourceObject: {fileID: 0}
  m_PrefabInstance: {fileID: 0}
  m_PrefabAsset: {fileID: 0}
  m_GameObject: {fileID: 58312911}
  m_Enabled: 1
  serializedVersion: 2
  m_ClearFlags: 1
  m_BackGroundColor: {r: 0.19215687, g: 0.3019608, b: 0.4745098, a: 0}
  m_projectionMatrixMode: 1
  m_GateFitMode: 2
  m_FOVAxisMode: 0
  m_SensorSize: {x: 36, y: 24}
  m_LensShift: {x: 0, y: 0}
  m_FocalLength: 50
  m_NormalizedViewPortRect:
    serializedVersion: 2
    x: 0
    y: 0
    width: 1
    height: 1
  near clip plane: 0.3
  far clip plane: 1000
  field of view: 60
  orthographic: 0
  orthographic size: 5
  m_Depth: -1
  m_CullingMask:
    serializedVersion: 2
    m_Bits: 4294967295
  m_RenderingPath: -1
  m_TargetTexture: {fileID: 0}
  m_TargetDisplay: 0
  m_TargetEye: 3
  m_HDR: 1
  m_AllowMSAA: 1
  m_AllowDynamicResolution: 0
  m_ForceIntoRT: 0
  m_OcclusionCulling: 1
  m_StereoConvergence: 10
  m_StereoSeparation: 0.022
--- !u!4 &58312914
Transform:
  m_ObjectHideFlags: 0
  m_CorrespondingSourceObject: {fileID: 0}
  m_PrefabInstance: {fileID: 0}
  m_PrefabAsset: {fileID: 0}
  m_GameObject: {fileID: 58312911}
  m_LocalRotation: {x: 0, y: -1, z: 0, w: 0}
  m_LocalPosition: {x: -0.5, y: 2.7184453, z: 7}
  m_LocalScale: {x: 1, y: 1, z: 1}
  m_Children: []
  m_Father: {fileID: 0}
  m_RootOrder: 0
  m_LocalEulerAnglesHint: {x: 0, y: -180, z: 0}
--- !u!1001 &74676821
PrefabInstance:
  m_ObjectHideFlags: 0
  serializedVersion: 2
  m_Modification:
    m_TransformParent: {fileID: 0}
    m_Modifications:
    - target: {fileID: -7292459438271927034, guid: 3631b2fd40d0c6e4f83e9201eaf9b139,
        type: 3}
      propertyPath: m_IsActive
      value: 0
      objectReference: {fileID: 0}
    - target: {fileID: -6797569302090972932, guid: 3631b2fd40d0c6e4f83e9201eaf9b139,
        type: 3}
      propertyPath: m_Materials.Array.data[0]
      value: 
      objectReference: {fileID: 2100000, guid: 243a59e1cc5344b48bc3732ea635ec3a, type: 2}
    - target: {fileID: -6097606345001675246, guid: 3631b2fd40d0c6e4f83e9201eaf9b139,
        type: 3}
      propertyPath: m_Materials.Array.data[0]
      value: 
      objectReference: {fileID: 2100000, guid: 4dd04e28d7245984f98492b3eff9200d, type: 2}
    - target: {fileID: -4564774998234478950, guid: 3631b2fd40d0c6e4f83e9201eaf9b139,
        type: 3}
      propertyPath: m_IsActive
      value: 0
      objectReference: {fileID: 0}
    - target: {fileID: -1676252644195166626, guid: 3631b2fd40d0c6e4f83e9201eaf9b139,
        type: 3}
      propertyPath: m_IsActive
      value: 0
      objectReference: {fileID: 0}
    - target: {fileID: -985962592947136556, guid: 3631b2fd40d0c6e4f83e9201eaf9b139,
        type: 3}
      propertyPath: m_Materials.Array.data[0]
      value: 
      objectReference: {fileID: 2100000, guid: c497f4d3cc060f24da29d00d80015905, type: 2}
    - target: {fileID: -344643058841378115, guid: 3631b2fd40d0c6e4f83e9201eaf9b139,
        type: 3}
      propertyPath: m_IsActive
      value: 0
      objectReference: {fileID: 0}
    - target: {fileID: 100106, guid: 3631b2fd40d0c6e4f83e9201eaf9b139, type: 3}
      propertyPath: m_IsActive
      value: 0
      objectReference: {fileID: 0}
    - target: {fileID: 100108, guid: 3631b2fd40d0c6e4f83e9201eaf9b139, type: 3}
      propertyPath: m_IsActive
      value: 1
      objectReference: {fileID: 0}
    - target: {fileID: 100112, guid: 3631b2fd40d0c6e4f83e9201eaf9b139, type: 3}
      propertyPath: m_Name
      value: clothing_01
      objectReference: {fileID: 0}
    - target: {fileID: 400112, guid: 3631b2fd40d0c6e4f83e9201eaf9b139, type: 3}
      propertyPath: m_LocalPosition.x
      value: 1.03
      objectReference: {fileID: 0}
    - target: {fileID: 400112, guid: 3631b2fd40d0c6e4f83e9201eaf9b139, type: 3}
      propertyPath: m_LocalPosition.y
      value: 0
      objectReference: {fileID: 0}
    - target: {fileID: 400112, guid: 3631b2fd40d0c6e4f83e9201eaf9b139, type: 3}
      propertyPath: m_LocalPosition.z
      value: 0
      objectReference: {fileID: 0}
    - target: {fileID: 400112, guid: 3631b2fd40d0c6e4f83e9201eaf9b139, type: 3}
      propertyPath: m_LocalRotation.x
      value: 0
      objectReference: {fileID: 0}
    - target: {fileID: 400112, guid: 3631b2fd40d0c6e4f83e9201eaf9b139, type: 3}
      propertyPath: m_LocalRotation.y
      value: 0
      objectReference: {fileID: 0}
    - target: {fileID: 400112, guid: 3631b2fd40d0c6e4f83e9201eaf9b139, type: 3}
      propertyPath: m_LocalRotation.z
      value: 0
      objectReference: {fileID: 0}
    - target: {fileID: 400112, guid: 3631b2fd40d0c6e4f83e9201eaf9b139, type: 3}
      propertyPath: m_LocalRotation.w
      value: 1
      objectReference: {fileID: 0}
    - target: {fileID: 400112, guid: 3631b2fd40d0c6e4f83e9201eaf9b139, type: 3}
      propertyPath: m_RootOrder
      value: 3
      objectReference: {fileID: 0}
    - target: {fileID: 400112, guid: 3631b2fd40d0c6e4f83e9201eaf9b139, type: 3}
      propertyPath: m_LocalEulerAnglesHint.x
      value: 0
      objectReference: {fileID: 0}
    - target: {fileID: 400112, guid: 3631b2fd40d0c6e4f83e9201eaf9b139, type: 3}
      propertyPath: m_LocalEulerAnglesHint.y
      value: 0
      objectReference: {fileID: 0}
    - target: {fileID: 400112, guid: 3631b2fd40d0c6e4f83e9201eaf9b139, type: 3}
      propertyPath: m_LocalEulerAnglesHint.z
      value: 0
      objectReference: {fileID: 0}
    - target: {fileID: 9500000, guid: 3631b2fd40d0c6e4f83e9201eaf9b139, type: 3}
      propertyPath: m_Controller
      value: 
      objectReference: {fileID: 9100000, guid: 98f886f2dbb212a93bcb638e181f3298, type: 2}
    - target: {fileID: 13700000, guid: 3631b2fd40d0c6e4f83e9201eaf9b139, type: 3}
      propertyPath: m_Materials.Array.data[0]
      value: 
      objectReference: {fileID: 2100000, guid: 2bdd6e6512054c44cab376e1bcc8cc36, type: 2}
    - target: {fileID: 13700002, guid: 3631b2fd40d0c6e4f83e9201eaf9b139, type: 3}
      propertyPath: m_Materials.Array.data[0]
      value: 
      objectReference: {fileID: 2100000, guid: d7f49b4a9a87eaa42abe09615e1e3f7c, type: 2}
    - target: {fileID: 13700004, guid: 3631b2fd40d0c6e4f83e9201eaf9b139, type: 3}
      propertyPath: m_Materials.Array.data[0]
      value: 
      objectReference: {fileID: 2100000, guid: 28124dea5c4b55048bb2f3e89eb19472, type: 2}
    - target: {fileID: 422495259137712680, guid: 3631b2fd40d0c6e4f83e9201eaf9b139,
        type: 3}
      propertyPath: m_Materials.Array.data[0]
      value: 
      objectReference: {fileID: 2100000, guid: 70806994df6608a4bab6a468bd7c450a, type: 2}
    - target: {fileID: 3379099861578178430, guid: 3631b2fd40d0c6e4f83e9201eaf9b139,
        type: 3}
      propertyPath: m_IsActive
      value: 1
      objectReference: {fileID: 0}
    - target: {fileID: 4051233648007572900, guid: 3631b2fd40d0c6e4f83e9201eaf9b139,
        type: 3}
      propertyPath: m_IsActive
      value: 0
      objectReference: {fileID: 0}
    - target: {fileID: 8937647720987331465, guid: 3631b2fd40d0c6e4f83e9201eaf9b139,
        type: 3}
      propertyPath: m_IsActive
      value: 1
      objectReference: {fileID: 0}
    m_RemovedComponents: []
  m_SourcePrefab: {fileID: 100100000, guid: 3631b2fd40d0c6e4f83e9201eaf9b139, type: 3}
--- !u!1001 &1794833313
PrefabInstance:
  m_ObjectHideFlags: 0
  serializedVersion: 2
  m_Modification:
    m_TransformParent: {fileID: 0}
    m_Modifications:
    - target: {fileID: -8499874759526746484, guid: 3631b2fd40d0c6e4f83e9201eaf9b139,
        type: 3}
      propertyPath: m_IsActive
      value: 0
      objectReference: {fileID: 0}
    - target: {fileID: -7292459438271927034, guid: 3631b2fd40d0c6e4f83e9201eaf9b139,
        type: 3}
      propertyPath: m_IsActive
      value: 0
      objectReference: {fileID: 0}
    - target: {fileID: -6797569302090972932, guid: 3631b2fd40d0c6e4f83e9201eaf9b139,
        type: 3}
      propertyPath: m_Materials.Array.data[0]
      value: 
      objectReference: {fileID: 2100000, guid: 243a59e1cc5344b48bc3732ea635ec3a, type: 2}
    - target: {fileID: -6097606345001675246, guid: 3631b2fd40d0c6e4f83e9201eaf9b139,
        type: 3}
      propertyPath: m_Materials.Array.data[0]
      value: 
      objectReference: {fileID: 2100000, guid: 4dd04e28d7245984f98492b3eff9200d, type: 2}
    - target: {fileID: -4564774998234478950, guid: 3631b2fd40d0c6e4f83e9201eaf9b139,
        type: 3}
      propertyPath: m_IsActive
      value: 1
      objectReference: {fileID: 0}
    - target: {fileID: -985962592947136556, guid: 3631b2fd40d0c6e4f83e9201eaf9b139,
        type: 3}
      propertyPath: m_Materials.Array.data[0]
      value: 
      objectReference: {fileID: 2100000, guid: c497f4d3cc060f24da29d00d80015905, type: 2}
    - target: {fileID: -344643058841378115, guid: 3631b2fd40d0c6e4f83e9201eaf9b139,
        type: 3}
      propertyPath: m_IsActive
      value: 0
      objectReference: {fileID: 0}
    - target: {fileID: 100106, guid: 3631b2fd40d0c6e4f83e9201eaf9b139, type: 3}
      propertyPath: m_IsActive
      value: 0
      objectReference: {fileID: 0}
    - target: {fileID: 100112, guid: 3631b2fd40d0c6e4f83e9201eaf9b139, type: 3}
      propertyPath: m_Name
      value: clothing_01 (1)
      objectReference: {fileID: 0}
    - target: {fileID: 400112, guid: 3631b2fd40d0c6e4f83e9201eaf9b139, type: 3}
      propertyPath: m_LocalPosition.x
      value: -2.33
      objectReference: {fileID: 0}
    - target: {fileID: 400112, guid: 3631b2fd40d0c6e4f83e9201eaf9b139, type: 3}
      propertyPath: m_LocalPosition.y
      value: 0
      objectReference: {fileID: 0}
    - target: {fileID: 400112, guid: 3631b2fd40d0c6e4f83e9201eaf9b139, type: 3}
      propertyPath: m_LocalPosition.z
      value: 0
      objectReference: {fileID: 0}
    - target: {fileID: 400112, guid: 3631b2fd40d0c6e4f83e9201eaf9b139, type: 3}
      propertyPath: m_LocalRotation.x
      value: 0
      objectReference: {fileID: 0}
    - target: {fileID: 400112, guid: 3631b2fd40d0c6e4f83e9201eaf9b139, type: 3}
      propertyPath: m_LocalRotation.y
      value: 0
      objectReference: {fileID: 0}
    - target: {fileID: 400112, guid: 3631b2fd40d0c6e4f83e9201eaf9b139, type: 3}
      propertyPath: m_LocalRotation.z
      value: 0
      objectReference: {fileID: 0}
    - target: {fileID: 400112, guid: 3631b2fd40d0c6e4f83e9201eaf9b139, type: 3}
      propertyPath: m_LocalRotation.w
      value: 1
      objectReference: {fileID: 0}
    - target: {fileID: 400112, guid: 3631b2fd40d0c6e4f83e9201eaf9b139, type: 3}
      propertyPath: m_RootOrder
      value: 4
      objectReference: {fileID: 0}
    - target: {fileID: 400112, guid: 3631b2fd40d0c6e4f83e9201eaf9b139, type: 3}
      propertyPath: m_LocalEulerAnglesHint.x
      value: 0
      objectReference: {fileID: 0}
    - target: {fileID: 400112, guid: 3631b2fd40d0c6e4f83e9201eaf9b139, type: 3}
      propertyPath: m_LocalEulerAnglesHint.y
      value: 0
      objectReference: {fileID: 0}
    - target: {fileID: 400112, guid: 3631b2fd40d0c6e4f83e9201eaf9b139, type: 3}
      propertyPath: m_LocalEulerAnglesHint.z
      value: 0
      objectReference: {fileID: 0}
    - target: {fileID: 9500000, guid: 3631b2fd40d0c6e4f83e9201eaf9b139, type: 3}
      propertyPath: m_Controller
      value: 
      objectReference: {fileID: 9100000, guid: 98f886f2dbb212a93bcb638e181f3298, type: 2}
    - target: {fileID: 13700000, guid: 3631b2fd40d0c6e4f83e9201eaf9b139, type: 3}
      propertyPath: m_Materials.Array.data[0]
      value: 
      objectReference: {fileID: 2100000, guid: 2bdd6e6512054c44cab376e1bcc8cc36, type: 2}
    - target: {fileID: 13700002, guid: 3631b2fd40d0c6e4f83e9201eaf9b139, type: 3}
      propertyPath: m_Materials.Array.data[0]
      value: 
      objectReference: {fileID: 2100000, guid: d7f49b4a9a87eaa42abe09615e1e3f7c, type: 2}
    - target: {fileID: 13700004, guid: 3631b2fd40d0c6e4f83e9201eaf9b139, type: 3}
      propertyPath: m_Materials.Array.data[0]
      value: 
      objectReference: {fileID: 2100000, guid: 28124dea5c4b55048bb2f3e89eb19472, type: 2}
    - target: {fileID: 3379099861578178430, guid: 3631b2fd40d0c6e4f83e9201eaf9b139,
        type: 3}
      propertyPath: m_IsActive
      value: 0
      objectReference: {fileID: 0}
    - target: {fileID: 3735592772745140055, guid: 3631b2fd40d0c6e4f83e9201eaf9b139,
        type: 3}
      propertyPath: m_Materials.Array.data[0]
      value: 
      objectReference: {fileID: 2100000, guid: 7c5e76c3621479b4b8996f023b5096f6, type: 2}
    - target: {fileID: 4051233648007572900, guid: 3631b2fd40d0c6e4f83e9201eaf9b139,
        type: 3}
      propertyPath: m_IsActive
      value: 0
      objectReference: {fileID: 0}
    - target: {fileID: 4241798890222501528, guid: 3631b2fd40d0c6e4f83e9201eaf9b139,
        type: 3}
      propertyPath: m_Materials.Array.data[0]
      value: 
      objectReference: {fileID: 2100000, guid: 8fd51ef31c4ec894f923135af219a2a6, type: 2}
    - target: {fileID: 8887433427531088338, guid: 3631b2fd40d0c6e4f83e9201eaf9b139,
        type: 3}
      propertyPath: m_Materials.Array.data[0]
      value: 
      objectReference: {fileID: 2100000, guid: 7c5e76c3621479b4b8996f023b5096f6, type: 2}
    - target: {fileID: 8937647720987331465, guid: 3631b2fd40d0c6e4f83e9201eaf9b139,
        type: 3}
      propertyPath: m_IsActive
      value: 1
      objectReference: {fileID: 0}
    m_RemovedComponents: []
  m_SourcePrefab: {fileID: 100100000, guid: 3631b2fd40d0c6e4f83e9201eaf9b139, type: 3}
--- !u!1 &1955706796
GameObject:
  m_ObjectHideFlags: 0
  m_CorrespondingSourceObject: {fileID: 0}
  m_PrefabInstance: {fileID: 0}
  m_PrefabAsset: {fileID: 0}
  serializedVersion: 6
  m_Component:
  - component: {fileID: 1955706798}
  - component: {fileID: 1955706797}
  m_Layer: 0
  m_Name: Directional Light
  m_TagString: Untagged
  m_Icon: {fileID: 0}
  m_NavMeshLayer: 0
  m_StaticEditorFlags: 0
  m_IsActive: 1
--- !u!108 &1955706797
Light:
  m_ObjectHideFlags: 0
  m_CorrespondingSourceObject: {fileID: 0}
  m_PrefabInstance: {fileID: 0}
  m_PrefabAsset: {fileID: 0}
  m_GameObject: {fileID: 1955706796}
  m_Enabled: 1
  serializedVersion: 10
  m_Type: 1
  m_Shape: 0
  m_Color: {r: 1, g: 0.95686275, b: 0.8392157, a: 1}
  m_Intensity: 1
  m_Range: 10
  m_SpotAngle: 30
  m_InnerSpotAngle: 21.80208
  m_CookieSize: 10
  m_Shadows:
    m_Type: 1
    m_Resolution: -1
    m_CustomResolution: -1
    m_Strength: 1
    m_Bias: 0.05
    m_NormalBias: 0.4
    m_NearPlane: 0.2
    m_CullingMatrixOverride:
      e00: 1
      e01: 0
      e02: 0
      e03: 0
      e10: 0
      e11: 1
      e12: 0
      e13: 0
      e20: 0
      e21: 0
      e22: 1
      e23: 0
      e30: 0
      e31: 0
      e32: 0
      e33: 1
    m_UseCullingMatrixOverride: 0
  m_Cookie: {fileID: 0}
  m_DrawHalo: 0
  m_Flare: {fileID: 0}
  m_RenderMode: 0
  m_CullingMask:
    serializedVersion: 2
    m_Bits: 4294967295
  m_RenderingLayerMask: 1
  m_Lightmapping: 4
  m_LightShadowCasterMode: 0
  m_AreaSize: {x: 1, y: 1}
  m_BounceIntensity: 1
  m_ColorTemperature: 6570
  m_UseColorTemperature: 0
  m_BoundingSphereOverride: {x: 0, y: 0, z: 0, w: 0}
  m_UseBoundingSphereOverride: 0
  m_ShadowRadius: 0
  m_ShadowAngle: 0
--- !u!4 &1955706798
Transform:
  m_ObjectHideFlags: 0
  m_CorrespondingSourceObject: {fileID: 0}
  m_PrefabInstance: {fileID: 0}
  m_PrefabAsset: {fileID: 0}
  m_GameObject: {fileID: 1955706796}
  m_LocalRotation: {x: 0.20510623, y: -0.89160585, z: 0.38150898, w: 0.13198985}
  m_LocalPosition: {x: -2.33, y: 3, z: 0}
  m_LocalScale: {x: 1, y: 1, z: 1}
  m_Children: []
  m_Father: {fileID: 0}
  m_RootOrder: 1
  m_LocalEulerAnglesHint: {x: 47.261, y: -173.32701, z: -22.988}
--- !u!1001 &2006795943
PrefabInstance:
  m_ObjectHideFlags: 0
  serializedVersion: 2
  m_Modification:
    m_TransformParent: {fileID: 0}
    m_Modifications:
    - target: {fileID: -8499874759526746484, guid: 3631b2fd40d0c6e4f83e9201eaf9b139,
        type: 3}
      propertyPath: m_IsActive
      value: 0
      objectReference: {fileID: 0}
    - target: {fileID: -7886763583439611939, guid: 3631b2fd40d0c6e4f83e9201eaf9b139,
        type: 3}
      propertyPath: m_Materials.Array.data[0]
      value: 
      objectReference: {fileID: 2100000, guid: a66ee7b099df89748b259c031ff3b8f5, type: 2}
    - target: {fileID: -7292459438271927034, guid: 3631b2fd40d0c6e4f83e9201eaf9b139,
        type: 3}
      propertyPath: m_IsActive
      value: 0
      objectReference: {fileID: 0}
    - target: {fileID: -6797569302090972932, guid: 3631b2fd40d0c6e4f83e9201eaf9b139,
        type: 3}
      propertyPath: m_Materials.Array.data[0]
      value: 
      objectReference: {fileID: 2100000, guid: 243a59e1cc5344b48bc3732ea635ec3a, type: 2}
    - target: {fileID: -6097606345001675246, guid: 3631b2fd40d0c6e4f83e9201eaf9b139,
        type: 3}
      propertyPath: m_Materials.Array.data[0]
      value: 
      objectReference: {fileID: 2100000, guid: 4dd04e28d7245984f98492b3eff9200d, type: 2}
    - target: {fileID: -4564774998234478950, guid: 3631b2fd40d0c6e4f83e9201eaf9b139,
        type: 3}
      propertyPath: m_IsActive
      value: 0
      objectReference: {fileID: 0}
    - target: {fileID: -1676252644195166626, guid: 3631b2fd40d0c6e4f83e9201eaf9b139,
        type: 3}
      propertyPath: m_IsActive
      value: 0
      objectReference: {fileID: 0}
    - target: {fileID: -985962592947136556, guid: 3631b2fd40d0c6e4f83e9201eaf9b139,
        type: 3}
      propertyPath: m_Materials.Array.data[0]
      value: 
      objectReference: {fileID: 2100000, guid: c497f4d3cc060f24da29d00d80015905, type: 2}
    - target: {fileID: -344643058841378115, guid: 3631b2fd40d0c6e4f83e9201eaf9b139,
        type: 3}
      propertyPath: m_IsActive
      value: 1
      objectReference: {fileID: 0}
    - target: {fileID: 100106, guid: 3631b2fd40d0c6e4f83e9201eaf9b139, type: 3}
      propertyPath: m_IsActive
      value: 0
      objectReference: {fileID: 0}
    - target: {fileID: 100112, guid: 3631b2fd40d0c6e4f83e9201eaf9b139, type: 3}
      propertyPath: m_Name
      value: clothing_01 (2)
      objectReference: {fileID: 0}
    - target: {fileID: 400112, guid: 3631b2fd40d0c6e4f83e9201eaf9b139, type: 3}
      propertyPath: m_LocalPosition.x
      value: -5.64
      objectReference: {fileID: 0}
    - target: {fileID: 400112, guid: 3631b2fd40d0c6e4f83e9201eaf9b139, type: 3}
      propertyPath: m_LocalPosition.y
      value: 0
      objectReference: {fileID: 0}
    - target: {fileID: 400112, guid: 3631b2fd40d0c6e4f83e9201eaf9b139, type: 3}
      propertyPath: m_LocalPosition.z
      value: 0
      objectReference: {fileID: 0}
    - target: {fileID: 400112, guid: 3631b2fd40d0c6e4f83e9201eaf9b139, type: 3}
      propertyPath: m_LocalRotation.x
      value: 0
      objectReference: {fileID: 0}
    - target: {fileID: 400112, guid: 3631b2fd40d0c6e4f83e9201eaf9b139, type: 3}
      propertyPath: m_LocalRotation.y
      value: 0
      objectReference: {fileID: 0}
    - target: {fileID: 400112, guid: 3631b2fd40d0c6e4f83e9201eaf9b139, type: 3}
      propertyPath: m_LocalRotation.z
      value: 0
      objectReference: {fileID: 0}
    - target: {fileID: 400112, guid: 3631b2fd40d0c6e4f83e9201eaf9b139, type: 3}
      propertyPath: m_LocalRotation.w
      value: 1
      objectReference: {fileID: 0}
    - target: {fileID: 400112, guid: 3631b2fd40d0c6e4f83e9201eaf9b139, type: 3}
      propertyPath: m_RootOrder
      value: 5
      objectReference: {fileID: 0}
    - target: {fileID: 400112, guid: 3631b2fd40d0c6e4f83e9201eaf9b139, type: 3}
      propertyPath: m_LocalEulerAnglesHint.x
      value: 0
      objectReference: {fileID: 0}
    - target: {fileID: 400112, guid: 3631b2fd40d0c6e4f83e9201eaf9b139, type: 3}
      propertyPath: m_LocalEulerAnglesHint.y
      value: 0
      objectReference: {fileID: 0}
    - target: {fileID: 400112, guid: 3631b2fd40d0c6e4f83e9201eaf9b139, type: 3}
      propertyPath: m_LocalEulerAnglesHint.z
      value: 0
      objectReference: {fileID: 0}
    - target: {fileID: 9500000, guid: 3631b2fd40d0c6e4f83e9201eaf9b139, type: 3}
      propertyPath: m_Controller
      value: 
      objectReference: {fileID: 9100000, guid: 98f886f2dbb212a93bcb638e181f3298, type: 2}
    - target: {fileID: 13700000, guid: 3631b2fd40d0c6e4f83e9201eaf9b139, type: 3}
      propertyPath: m_Materials.Array.data[0]
      value: 
      objectReference: {fileID: 2100000, guid: 2bdd6e6512054c44cab376e1bcc8cc36, type: 2}
    - target: {fileID: 13700002, guid: 3631b2fd40d0c6e4f83e9201eaf9b139, type: 3}
      propertyPath: m_Materials.Array.data[0]
      value: 
      objectReference: {fileID: 2100000, guid: d7f49b4a9a87eaa42abe09615e1e3f7c, type: 2}
    - target: {fileID: 13700004, guid: 3631b2fd40d0c6e4f83e9201eaf9b139, type: 3}
      propertyPath: m_Materials.Array.data[0]
      value: 
      objectReference: {fileID: 2100000, guid: 28124dea5c4b55048bb2f3e89eb19472, type: 2}
    - target: {fileID: 3379099861578178430, guid: 3631b2fd40d0c6e4f83e9201eaf9b139,
        type: 3}
      propertyPath: m_IsActive
      value: 0
      objectReference: {fileID: 0}
    - target: {fileID: 3735592772745140055, guid: 3631b2fd40d0c6e4f83e9201eaf9b139,
        type: 3}
      propertyPath: m_Materials.Array.data[0]
      value: 
      objectReference: {fileID: 2100000, guid: dd77b70f8b3606c4ba8ee08ce668470f, type: 2}
    - target: {fileID: 8937647720987331465, guid: 3631b2fd40d0c6e4f83e9201eaf9b139,
        type: 3}
      propertyPath: m_IsActive
      value: 1
      objectReference: {fileID: 0}
    m_RemovedComponents: []
  m_SourcePrefab: {fileID: 100100000, guid: 3631b2fd40d0c6e4f83e9201eaf9b139, type: 3}
--- !u!1001 &2034095409
PrefabInstance:
  m_ObjectHideFlags: 0
  serializedVersion: 2
  m_Modification:
    m_TransformParent: {fileID: 0}
    m_Modifications:
    - target: {fileID: -8499874759526746484, guid: 3631b2fd40d0c6e4f83e9201eaf9b139,
        type: 3}
      propertyPath: m_IsActive
      value: 0
      objectReference: {fileID: 0}
    - target: {fileID: -7292459438271927034, guid: 3631b2fd40d0c6e4f83e9201eaf9b139,
        type: 3}
      propertyPath: m_IsActive
      value: 1
      objectReference: {fileID: 0}
    - target: {fileID: -6797569302090972932, guid: 3631b2fd40d0c6e4f83e9201eaf9b139,
        type: 3}
      propertyPath: m_Materials.Array.data[0]
      value: 
      objectReference: {fileID: 2100000, guid: 243a59e1cc5344b48bc3732ea635ec3a, type: 2}
    - target: {fileID: -6097606345001675246, guid: 3631b2fd40d0c6e4f83e9201eaf9b139,
        type: 3}
      propertyPath: m_Materials.Array.data[0]
      value: 
      objectReference: {fileID: 2100000, guid: 4dd04e28d7245984f98492b3eff9200d, type: 2}
    - target: {fileID: -4564774998234478950, guid: 3631b2fd40d0c6e4f83e9201eaf9b139,
        type: 3}
      propertyPath: m_IsActive
      value: 0
      objectReference: {fileID: 0}
    - target: {fileID: -1676252644195166626, guid: 3631b2fd40d0c6e4f83e9201eaf9b139,
        type: 3}
      propertyPath: m_IsActive
      value: 0
      objectReference: {fileID: 0}
    - target: {fileID: -985962592947136556, guid: 3631b2fd40d0c6e4f83e9201eaf9b139,
        type: 3}
      propertyPath: m_Materials.Array.data[0]
      value: 
      objectReference: {fileID: 2100000, guid: c497f4d3cc060f24da29d00d80015905, type: 2}
    - target: {fileID: -344643058841378115, guid: 3631b2fd40d0c6e4f83e9201eaf9b139,
        type: 3}
      propertyPath: m_IsActive
      value: 0
      objectReference: {fileID: 0}
    - target: {fileID: 100112, guid: 3631b2fd40d0c6e4f83e9201eaf9b139, type: 3}
      propertyPath: m_Name
      value: clothing_00
      objectReference: {fileID: 0}
    - target: {fileID: 400112, guid: 3631b2fd40d0c6e4f83e9201eaf9b139, type: 3}
      propertyPath: m_LocalPosition.x
      value: 4.39
      objectReference: {fileID: 0}
    - target: {fileID: 400112, guid: 3631b2fd40d0c6e4f83e9201eaf9b139, type: 3}
      propertyPath: m_LocalPosition.y
      value: 0
      objectReference: {fileID: 0}
    - target: {fileID: 400112, guid: 3631b2fd40d0c6e4f83e9201eaf9b139, type: 3}
      propertyPath: m_LocalPosition.z
      value: 0
      objectReference: {fileID: 0}
    - target: {fileID: 400112, guid: 3631b2fd40d0c6e4f83e9201eaf9b139, type: 3}
      propertyPath: m_LocalRotation.x
      value: 0
      objectReference: {fileID: 0}
    - target: {fileID: 400112, guid: 3631b2fd40d0c6e4f83e9201eaf9b139, type: 3}
      propertyPath: m_LocalRotation.y
      value: 0
      objectReference: {fileID: 0}
    - target: {fileID: 400112, guid: 3631b2fd40d0c6e4f83e9201eaf9b139, type: 3}
      propertyPath: m_LocalRotation.z
      value: 0
      objectReference: {fileID: 0}
    - target: {fileID: 400112, guid: 3631b2fd40d0c6e4f83e9201eaf9b139, type: 3}
      propertyPath: m_LocalRotation.w
      value: 1
      objectReference: {fileID: 0}
    - target: {fileID: 400112, guid: 3631b2fd40d0c6e4f83e9201eaf9b139, type: 3}
      propertyPath: m_RootOrder
      value: 2
      objectReference: {fileID: 0}
    - target: {fileID: 400112, guid: 3631b2fd40d0c6e4f83e9201eaf9b139, type: 3}
      propertyPath: m_LocalEulerAnglesHint.x
      value: 0
      objectReference: {fileID: 0}
    - target: {fileID: 400112, guid: 3631b2fd40d0c6e4f83e9201eaf9b139, type: 3}
      propertyPath: m_LocalEulerAnglesHint.y
      value: 0
      objectReference: {fileID: 0}
    - target: {fileID: 400112, guid: 3631b2fd40d0c6e4f83e9201eaf9b139, type: 3}
      propertyPath: m_LocalEulerAnglesHint.z
      value: 0
      objectReference: {fileID: 0}
    - target: {fileID: 9500000, guid: 3631b2fd40d0c6e4f83e9201eaf9b139, type: 3}
      propertyPath: m_Controller
      value: 
      objectReference: {fileID: 9100000, guid: 98f886f2dbb212a93bcb638e181f3298, type: 2}
    - target: {fileID: 13700000, guid: 3631b2fd40d0c6e4f83e9201eaf9b139, type: 3}
      propertyPath: m_Materials.Array.data[0]
      value: 
      objectReference: {fileID: 2100000, guid: 2bdd6e6512054c44cab376e1bcc8cc36, type: 2}
    - target: {fileID: 13700002, guid: 3631b2fd40d0c6e4f83e9201eaf9b139, type: 3}
      propertyPath: m_Materials.Array.data[0]
      value: 
      objectReference: {fileID: 2100000, guid: d7f49b4a9a87eaa42abe09615e1e3f7c, type: 2}
    - target: {fileID: 13700004, guid: 3631b2fd40d0c6e4f83e9201eaf9b139, type: 3}
      propertyPath: m_Materials.Array.data[0]
      value: 
      objectReference: {fileID: 2100000, guid: 28124dea5c4b55048bb2f3e89eb19472, type: 2}
    - target: {fileID: 3379099861578178430, guid: 3631b2fd40d0c6e4f83e9201eaf9b139,
        type: 3}
      propertyPath: m_IsActive
      value: 0
      objectReference: {fileID: 0}
    - target: {fileID: 4051233648007572900, guid: 3631b2fd40d0c6e4f83e9201eaf9b139,
        type: 3}
      propertyPath: m_IsActive
      value: 0
      objectReference: {fileID: 0}
    - target: {fileID: 8937647720987331465, guid: 3631b2fd40d0c6e4f83e9201eaf9b139,
        type: 3}
      propertyPath: m_IsActive
      value: 1
      objectReference: {fileID: 0}
    m_RemovedComponents: []
  m_SourcePrefab: {fileID: 100100000, guid: 3631b2fd40d0c6e4f83e9201eaf9b139, type: 3}
